<?xml version="1.0" encoding="UTF-8" standalone="no"?>
<!-- Created with Inkscape (http://www.inkscape.org/) -->

<svg
   xmlns:dc="http://purl.org/dc/elements/1.1/"
   xmlns:cc="http://creativecommons.org/ns#"
   xmlns:rdf="http://www.w3.org/1999/02/22-rdf-syntax-ns#"
   xmlns:svg="http://www.w3.org/2000/svg"
   xmlns="http://www.w3.org/2000/svg"
   xmlns:sodipodi="http://sodipodi.sourceforge.net/DTD/sodipodi-0.dtd"
   xmlns:inkscape="http://www.inkscape.org/namespaces/inkscape"
   width="677.61096"
   height="179.54858"
   id="svg2"
   version="1.1"
   inkscape:version="0.92.2 5c3e80d, 2017-08-06"
   sodipodi:docname="logo.svg">
  <defs
     id="defs4" />
  <sodipodi:namedview
     id="base"
     pagecolor="#ffffff"
     bordercolor="#666666"
     borderopacity="1.0"
     inkscape:pageopacity="0.0"
     inkscape:pageshadow="2"
     inkscape:zoom="1.1555303"
     inkscape:cx="377.2285"
     inkscape:cy="89.774292"
     inkscape:document-units="px"
     inkscape:current-layer="layer1"
     showgrid="false"
     showguides="false"
     inkscape:guide-bbox="true"
     inkscape:window-width="1366"
     inkscape:window-height="697"
     inkscape:window-x="0"
     inkscape:window-y="29"
     inkscape:window-maximized="1"
     fit-margin-top="0"
     fit-margin-left="0"
     fit-margin-right="0"
     fit-margin-bottom="0">
    <sodipodi:guide
       position="113.2814,68.230335"
       orientation="70.210999,0"
       id="guide3773"
       inkscape:locked="false" />
    <sodipodi:guide
       position="183.4924,-1.9806651"
       orientation="0,70.210999"
       id="guide3775"
       inkscape:locked="false" />
    <sodipodi:guide
       position="183.4924,-1.9806651"
       orientation="-70.210999,0"
       id="guide3777"
       inkscape:locked="false" />
    <sodipodi:guide
       position="183.4924,68.230335"
       orientation="0,-70.210999"
       id="guide3779"
       inkscape:locked="false" />
    <sodipodi:guide
       orientation="1,0"
       position="10.730768,43.085595"
       id="guide3781"
       inkscape:locked="false" />
    <sodipodi:guide
       orientation="1,0"
       position="285.22906,-1.9806651"
       id="guide3783"
       inkscape:locked="false" />
    <sodipodi:guide
       orientation="0,1"
       position="127.24443,171.4481"
       id="guide3785"
       inkscape:locked="false" />
    <sodipodi:guide
       orientation="0,1"
       position="133.66256,-104.5313"
       id="guide3787"
       inkscape:locked="false" />
  </sodipodi:namedview>
  <metadata
     id="metadata7">
    <rdf:RDF>
      <cc:Work
         rdf:about="">
        <dc:format>image/svg+xml</dc:format>
        <dc:type
           rdf:resource="http://purl.org/dc/dcmitype/StillImage" />
        <dc:title />
      </cc:Work>
    </rdf:RDF>
  </metadata>
  <g
     inkscape:label="Layer 1"
     inkscape:groupmode="layer"
     id="layer1"
     transform="translate(-49.00717,-350.11674)">
    <text
       xml:space="preserve"
       style="font-style:normal;font-variant:normal;font-weight:900;font-stretch:normal;font-size:74.66666412px;line-height:0%;font-family:Roboto;-inkscape-font-specification:'Roboto, Heavy';font-variant-ligatures:normal;font-variant-caps:normal;font-variant-numeric:normal;font-feature-settings:normal;text-align:start;letter-spacing:0px;word-spacing:0px;writing-mode:lr-tb;text-anchor:start;display:inline;fill:#000000;fill-opacity:1;stroke:none"
       x="235.15662"
       y="429.58688"
       id="text3851"><tspan
         sodipodi:role="line"
         id="tspan827"
         x="235.15662"
         y="429.58688"
         style="fill:#ff6600">Podcast Linux</tspan></text>
    <text
       xml:space="preserve"
       style="font-style:normal;font-variant:normal;font-weight:300;font-stretch:normal;font-size:26.66666603px;line-height:0%;font-family:Roboto;-inkscape-font-specification:'Roboto, Light';font-variant-ligatures:normal;font-variant-caps:normal;font-variant-numeric:normal;font-feature-settings:normal;text-align:center;letter-spacing:0px;word-spacing:0px;writing-mode:lr-tb;text-anchor:middle;display:inline;fill:#000000;fill-opacity:1;stroke:none"
       x="470.09698"
       y="476.71478"
       id="text3855"><tspan
         sodipodi:role="line"
         id="tspan3857"
         x="474.34177"
         y="476.71478"
         style="font-style:normal;font-variant:normal;font-weight:300;font-stretch:normal;font-size:26.66666603px;line-height:125%;font-family:Roboto;-inkscape-font-specification:'Roboto, Light';font-variant-ligatures:normal;font-variant-caps:normal;font-variant-numeric:normal;font-feature-settings:normal;text-align:center;writing-mode:lr-tb;text-anchor:middle">El podcast del mundo GNU/Linux </tspan><tspan
         sodipodi:role="line"
         x="470.09698"
         y="510.04813"
         style="font-style:normal;font-variant:normal;font-weight:300;font-stretch:normal;font-size:26.66666603px;line-height:125%;font-family:Roboto;-inkscape-font-specification:'Roboto, Light';font-variant-ligatures:normal;font-variant-caps:normal;font-variant-numeric:normal;font-feature-settings:normal;text-align:center;writing-mode:lr-tb;text-anchor:middle"
         id="tspan873">para usuarios domésticos de escritorio</tspan></text>
    <g
       transform="matrix(0.38644827,0,0,0.38644827,-51.790552,241.02142)"
       id="layer1-8"
       inkscape:label="Capa 1"
       style="stroke-width:2.58766842">
      <g
         style="display:inline;stroke-width:5.44048977"
         transform="matrix(0.79144017,0,0,0.76133528,210.30315,190.98444)"
         id="g4745">
        <g
           transform="matrix(1.2822564,0,0,1.3329597,-274.59224,-257.75373)"
           id="layer1-3"
           inkscape:label="Capa 1"
           style="stroke-width:13.87246513">
          <g
             style="stroke-width:5.36099052"
             transform="matrix(0.79144017,0,0,0.76133528,210.30315,190.98444)"
             id="g4745-6">
            <g
               style="stroke-width:5.36099052"
               transform="translate(1295.1975,25.354605)"
               id="g5317">
              <path
                 inkscape:connector-curvature="0"
                 id="path5327"
                 d="m -940.69674,689.37701 c -46.49904,-2.50144 -83.71886,-12.59973 -123.67326,-33.55436 -25.4858,-13.36635 -55.1474,-35.71684 -74.1193,-55.84993 -12.1482,-12.89179 -27.5733,-32.82324 -36.2695,-46.86559 -22.0383,-35.58682 -34.9037,-71.55579 -41.8299,-116.9481 -2.5913,-16.98261 -2.3384,-62.56901 0.4404,-79.39159 3.076,-18.62214 7.4836,-38.66666 10.5579,-48.01528 9.5928,-29.16992 25.527,-59.83612 44.0541,-84.78418 6.5043,-8.7586 30.285,-35.96832 31.9762,-36.58704 0.4975,-0.18197 6.2921,-5.32772 12.877,-11.43498 6.585,-6.10726 13.7913,-12.33566 16.0141,-13.84088 2.2228,-1.50522 6.2234,-4.27465 8.8902,-6.15429 2.6667,-1.87963 9.7264,-6.31431 15.6881,-9.85482 5.9617,-3.54053 11.4813,-6.92526 12.2657,-7.52164 0.7844,-0.59639 3.3515,-1.86302 5.7048,-2.81475 2.3532,-0.95173 8.1293,-3.5436 12.8357,-5.75971 4.7065,-2.21612 10.0547,-4.35032 11.885,-4.74268 1.8303,-0.39236 4.5738,-1.35053 6.0968,-2.12927 1.5229,-0.77874 7.7269,-2.84343 13.7866,-4.58821 6.0596,-1.74478 12.515,-3.7971 14.34531,-4.56071 2.88562,-1.20389 7.21755,-2.09549 23.76994,-4.89234 21.93787,-3.70682 60.02424,-4.34916 82.96989,-1.39932 8.24332,1.05975 17.01442,2.3371 19.49135,2.83857 48.74353,9.86848 90.86961,29.80951 131.01568,62.01831 21.56348,17.30016 46.14285,45.1943 61.62751,69.9386 8.74328,13.97166 19.36675,34.46838 23.34143,45.03454 1.63935,4.358 3.78656,9.849 4.77159,12.20222 4.81764,11.50943 10.86459,35.57033 13.73978,54.67086 1.30494,8.66903 3.4283,37.8167 3.4283,47.06084 v 3.80683 h -14.73736 c -11.16096,0 -14.73512,-0.28841 -14.7281,-1.18849 0.005,-0.65368 2.99593,-5.46709 6.64632,-10.69648 3.65039,-5.22938 6.64124,-9.99702 6.64632,-10.59474 0.005,-0.59773 -0.66751,-1.34649 -1.4947,-1.6639 -1.96075,-0.75241 -19.75904,-0.74973 -21.72135,0.003 -0.83186,0.31922 -3.85228,4.16995 -6.71201,8.55718 -2.85974,4.38723 -5.64661,7.97678 -6.19302,7.97678 -0.54641,0 -3.30121,-3.57725 -6.12175,-7.94944 -2.82054,-4.3722 -5.84093,-8.22293 -6.71197,-8.55718 -2.35963,-0.90547 -22.61926,-0.70655 -24.10782,0.23671 -1.67815,1.0634 -1.25078,1.82689 9.17413,16.38989 13.03654,18.21126 12.16297,16.38386 9.58568,20.05185 -6.00096,8.54054 -20.90037,28.26808 -21.74311,28.78891 -0.63814,0.39482 -0.95942,-10.18675 -0.95942,-31.59969 0,-23.77132 -0.29847,-32.49154 -1.14095,-33.33403 -1.19556,-1.19555 -18.28981,-1.65181 -21.12502,-0.56383 -1.30317,0.50007 -1.507,3.19762 -1.52665,20.20445 -0.026,22.50194 -0.60507,26.18268 -4.69583,29.8484 -3.98104,3.56739 -11.01606,3.73055 -14.21111,0.32959 -3.25781,-3.46778 -3.84215,-7.87109 -3.86683,-29.13876 -0.0162,-13.90248 -0.35183,-19.86803 -1.16365,-20.67985 -1.75309,-1.75309 -20.15672,-1.54801 -21.64161,0.24116 -0.8538,1.02879 -1.05525,8.01718 -0.78795,27.33543 0.33299,24.0659 0.51186,26.33816 2.45958,31.24514 3.18562,8.0257 8.7253,12.56338 17.36344,14.2228 7.40881,1.42327 16.76303,-0.27784 21.86972,-3.97711 4.15945,-3.01309 4.37467,-2.99988 6.05449,0.37151 1.06378,2.13499 1.2874,2.15864 22.81661,2.41204 17.21121,0.20257 22.15928,-0.0173 23.74311,-1.05507 1.10044,-0.72103 4.962,-5.66078 8.58124,-10.97722 3.61925,-5.31644 7.04186,-9.52211 7.60579,-9.34596 0.56392,0.17616 3.45402,3.93111 6.42245,8.34432 9.79184,14.55771 7.70736,13.25342 21.18109,13.25342 8.73227,0 11.96965,-0.32944 12.77517,-1.30004 0.84895,-1.02292 -0.95025,-4.13809 -8.44076,-14.61442 -5.23582,-7.32291 -9.51969,-13.58364 -9.51969,-13.91272 0,-0.32909 6.473,-0.59834 14.38446,-0.59834 h 14.38445 l -0.59313,4.99168 c -4.23506,35.64154 -12.4029,65.10338 -26.68893,96.26826 -1.91772,4.18351 -5.11309,10.17353 -7.10081,13.31116 -1.98773,3.13763 -6.12964,9.76945 -9.20426,14.73736 -28.38459,45.86345 -74.70634,87.20735 -123.62808,110.34271 -16.36257,7.73797 -45.39408,17.99641 -51.01448,18.02625 -1.16871,0.007 -4.47816,0.6845 -7.35432,1.50732 -2.87616,0.82283 -7.58261,1.87793 -10.45877,2.34468 -2.87616,0.46675 -7.36868,1.27096 -9.98338,1.78713 -4.01887,0.79338 -13.85575,1.59901 -39.45809,3.23158 -2.35323,0.15006 -10.69648,-0.0725 -18.54056,-0.49439 z m -47.27997,-40.0536 c 2.57235,-0.51447 3.16657,-0.24984 4.21944,1.87909 0.67399,1.36283 1.6533,2.44106 2.17624,2.39605 1.59493,-0.13727 1.72059,-3.27363 0.25341,-6.32514 -0.76417,-1.58934 -2.30485,-4.92204 -3.42374,-7.406 -3.23632,-7.1847 -5.57327,-5.81614 -9.68297,5.67048 -1.19747,3.34689 -1.82773,6.64437 -1.45386,7.60638 0.59644,1.53469 0.86495,1.46133 2.78873,-0.76193 1.17081,-1.35307 3.47604,-2.7296 5.12275,-3.05893 z m 19.18145,1.47817 c 0.5446,-1.96102 0.99258,-3.83413 0.99549,-4.16247 0.0142,-1.59068 3.04407,-7.61535 3.56696,-7.09246 0.32883,0.32882 0.83859,3.69098 1.1328,7.47144 0.46274,5.9461 0.78007,6.87359 2.35169,6.87359 1.22659,0 2.17821,-1.0735 2.9294,-3.30457 0.87077,-2.5862 1.76636,-3.43826 4.11986,-3.9196 1.65397,-0.33828 3.65166,-1.14987 4.43929,-1.80354 1.49694,-1.24236 1.90515,-5.43292 0.7044,-7.23122 -2.21198,-3.31273 -11.2587,-4.42141 -13.9683,-1.7118 -1.1414,1.14139 -1.83823,1.25703 -2.79416,0.46367 -1.63889,-1.36016 -2.76451,-0.0276 -4.59333,5.43788 -0.75352,2.25191 -1.76213,4.1166 -2.24136,4.14377 -0.47923,0.0272 -1.6705,-2.35012 -2.64725,-5.28287 -1.65713,-4.9756 -3.49469,-6.62242 -4.88297,-4.37614 -0.61754,0.9992 3.87319,14.8066 5.48725,16.87132 1.88761,2.41467 4.37338,1.32052 5.40023,-2.377 z m 11.97557,-9.67997 c -0.30087,-0.48681 -0.11218,-1.15385 0.41929,-1.48231 0.53146,-0.32847 0.9663,0.0698 0.9663,0.88509 0,1.67011 -0.57053,1.91601 -1.38559,0.59722 z m 22.7578,10.80099 2.26546,-2.44447 1.60168,2.44447 c 1.39395,2.12742 2.26964,2.44447 6.75156,2.44447 3.74578,0 5.27136,-0.38884 5.59543,-1.42619 1.50819,-4.82758 1.37999,-4.72966 3.01584,-2.3035 0.85424,1.26693 1.70675,2.4935 1.8945,2.72573 0.77958,0.96433 21.51165,0.98377 22.6714,0.0213 0.84763,-0.70348 1.40598,-0.70782 1.83462,-0.0143 0.7914,1.28053 5.78937,1.2883 8.17281,0.0127 2.00969,-1.07555 2.37878,-3.83713 0.88573,-6.62693 -0.64656,-1.20811 -0.63317,-1.9793 0.0416,-2.39634 1.70385,-1.05304 3.64495,1.43968 3.94873,5.07088 0.23545,2.81435 0.78931,3.65007 2.91037,4.39149 3.76293,1.31533 4.92845,-0.22828 3.03627,-4.02124 -0.82745,-1.65867 -1.23666,-3.44908 -0.90935,-3.97867 0.32731,-0.52961 4.12109,-0.96291 8.43062,-0.96291 8.18561,0 11.01823,-1.09675 9.02757,-3.49534 -0.71047,-0.85611 -3.52479,-1.25871 -8.79864,-1.25871 -6.57746,0 -8.00112,-0.28855 -9.38225,-1.90159 -2.14025,-2.49963 -3.00304,-2.40015 -4.94962,0.5707 -1.46495,2.23579 -2.0163,2.41286 -5.76347,1.85094 -3.46549,-0.51969 -4.47561,-0.28933 -6.17258,1.40764 -1.74477,1.74478 -2.18474,1.83493 -3.14075,0.64355 -1.5006,-1.87005 -7.0098,-2.78913 -9.31705,-1.55433 -1.30937,0.70075 -1.68766,1.57327 -1.26266,2.91233 0.82388,2.59581 -2.03007,5.57874 -5.33752,5.57874 -2.65109,0 -3.82084,-1.38202 -3.01788,-3.56549 0.24038,-0.65368 1.47437,-1.1885 2.74217,-1.1885 2.65468,0 4.11293,-2.63932 2.14628,-3.88459 -2.49812,-1.5818 -5.75211,-0.86919 -8.47794,1.85662 -3.07638,3.07638 -3.99501,2.23848 -3.18916,-2.9089 0.64536,-4.12225 -1.57926,-7.46613 -3.76194,-5.65466 -0.8096,0.6719 -1.60466,2.13742 -1.76679,3.25669 -0.21282,1.46931 -1.21808,2.22283 -3.61609,2.71055 -1.82672,0.37153 -3.90873,1.56021 -4.62669,2.64151 l -1.30538,1.96602 -2.81493,-2.36861 c -3.42831,-2.88473 -7.27789,-3.02897 -10.6226,-0.39802 -3.08169,2.42406 -3.29236,6.28025 -0.53461,9.78615 2.75338,3.50037 8.57968,3.53037 11.79522,0.0607 z m 43.64242,-1.79094 c -0.85297,-2.22282 0.93231,-3.82408 2.35386,-2.11122 0.86338,1.04031 0.79303,1.60539 -0.31429,2.52438 -1.16395,0.96599 -1.53953,0.88991 -2.03957,-0.41316 z m -7.01598,-0.51857 c 0,-0.52294 0.45311,-0.9508 1.00692,-0.9508 0.5538,0 0.74247,0.42786 0.41928,0.9508 -0.3232,0.52293 -0.77631,0.95079 -1.00692,0.95079 -0.2306,0 -0.41928,-0.42786 -0.41928,-0.95079 z m -44.29584,-1.3016 c -0.71363,-1.85969 0.25867,-3.45239 2.10759,-3.45239 0.93346,0 1.32986,0.72279 1.13239,2.06482 -0.36893,2.50727 -2.46572,3.40525 -3.23998,1.38757 z m 15.38498,-0.23692 c -0.34441,-0.89752 -0.21308,-2.04498 0.29186,-2.54991 1.37395,-1.37395 4.08554,0.0368 3.71991,1.93534 -0.42847,2.22493 -3.22918,2.65398 -4.01177,0.61457 z m 13.6569,-196.99316 c 0.28413,-1.20559 0.4027,-26.29157 0.26349,-55.74662 l -0.25311,-53.55464 -9.25487,-0.42293 c -5.09017,-0.23261 -10.32451,-0.14564 -11.63186,0.19327 l -2.37699,0.6162 -0.24554,54.49567 c -0.18102,40.17309 0.0435,54.84397 0.85426,55.82088 0.84552,1.01878 3.53084,1.26333 11.61393,1.05767 10.09424,-0.25683 10.53473,-0.35505 11.03069,-2.4595 z m 29.92341,1.17327 c 1.30378,-1.30378 1.47978,-5.57333 1.38162,-33.51562 -0.0619,-17.61182 -0.38619,-33.30508 -0.7207,-34.87389 l -0.60821,-2.8524 -10.43873,-0.27215 c -8.99115,-0.23441 -10.60528,-0.0444 -11.63967,1.37022 -1.68751,2.30781 -1.74409,68.81288 -0.06,70.49699 1.82983,1.82983 20.19638,1.53615 22.08567,-0.35315 z m 30.42552,0 c 1.26764,-1.26764 1.49411,-4.66155 1.49411,-22.39096 0,-22.34419 0.41819,-24.69439 4.96011,-27.87569 2.71155,-1.89922 10.16282,-1.91643 12.85654,-0.0297 3.34657,2.34403 4.04078,7.3226 4.04639,29.01884 0.004,14.66246 0.32979,20.81417 1.14626,21.63064 1.32026,1.32026 19.50246,1.58708 21.50774,0.31562 1.00426,-0.63675 1.19468,-6.20368 0.9508,-27.79627 l -0.30495,-27.00007 -2.55943,-5.46127 c -4.22319,-9.01137 -8.89246,-12.24924 -19.37186,-13.43328 -7.50279,-0.84772 -14.50622,0.70089 -19.48707,4.30899 -4.01958,2.91176 -5.19051,2.7852 -5.80268,-0.6272 -0.31135,-1.73552 -1.19994,-1.92536 -10.17455,-2.17365 -6.43438,-0.17801 -10.29221,0.10872 -11.16072,0.82952 -1.80662,1.49936 -1.98432,69.23962 -0.18636,71.03759 1.82983,1.82983 20.19638,1.53615 22.08567,-0.35315 z m -342.72802,-9.85296 c 0.5413,-1.01149 0.9842,-4.48015 0.9842,-7.7081 0,-5.20635 0.1879,-5.79472 1.6639,-5.211 3.1195,1.23364 7.7323,1.67963 11.0108,1.06457 4.2053,-0.78891 11.6012,-7.28498 13.1404,-11.54158 0.6541,-1.8088 1.473,-3.28872 1.8199,-3.28872 0.3468,0 1.3327,1.83842 2.1908,4.08538 0.8581,2.24697 3.3765,5.8676 5.5963,8.04586 3.4716,3.40666 4.789,4.04891 9.4209,4.59303 7.3681,0.86555 11.6384,-0.12142 15.609,-3.60768 3.6601,-3.21363 7.0546,-9.04929 7.0546,-12.12792 0,-1.06671 0.4279,-1.93947 0.9508,-1.93947 0.523,0 0.9508,1.02129 0.9508,2.26954 0,3.47512 5.6995,11.1386 9.8714,13.27316 2.6582,1.36003 5.2527,1.82945 9.2703,1.6773 8.4854,-0.32136 10.5086,-0.26302 14.2901,0.41206 2.8305,0.50531 3.6609,0.28641 4.4407,-1.17052 0.5903,-1.103 0.8937,-11.77317 0.7892,-27.74968 -0.16,-24.45302 -0.2764,-26.0355 -2.0077,-27.30148 -2.5247,-1.84611 -3.9817,-1.68902 -6.356,0.6853 -1.8006,1.80061 -1.9752,2.79128 -1.5494,8.79488 0.6042,8.52119 0.34,9.31031 -2.7269,8.14427 -4.0906,-1.55525 -11.8143,-1.04638 -16.1776,1.06588 -4.1936,2.03008 -6.7929,5.38494 -8.9719,11.57981 -0.6898,1.96102 -1.5796,3.56549 -1.9773,3.56549 -0.3977,0 -1.1855,-1.71705 -1.7506,-3.81567 -2.0503,-7.61417 -9.4349,-13.30341 -17.2547,-13.29338 -9.28,0.0119 -15.974,4.3857 -19.7479,12.90292 l -1.653,3.73073 -1.6497,-4.94735 c -1.9277,-5.78057 -6.4434,-10.22946 -11.735,-11.56136 -4.8776,-1.22767 -21.7456,-0.88419 -23.0998,0.47037 -1.5826,1.583 -1.5378,47.42664 0.048,49.33762 1.7017,2.05037 6.369,1.7821 7.5552,-0.43426 z m 43.0624,-21.51512 c -4.4478,-2.6658 -5.5472,-5.18317 -4.6679,-10.68842 0.7593,-4.75376 4.5788,-7.78151 9.8242,-7.78773 3.2088,-0.004 4.6265,0.6114 7.3687,3.19763 2.9018,2.73679 3.3955,3.81551 3.3955,7.41986 0,3.52247 -0.5167,4.71832 -3.1354,7.25642 -3.8729,3.75381 -7.2605,3.91338 -12.7851,0.60224 z m 40.5975,-1.12882 c -2.0907,-1.86823 -3.0798,-3.76075 -3.4644,-6.62904 -0.4902,-3.65543 -0.2384,-4.31424 2.816,-7.36868 4.6842,-4.68415 9.8137,-4.38509 14.17,0.82615 3.3375,3.99258 1.5911,11.97603 -3.157,14.43137 -3.9324,2.03352 -7.1115,1.64711 -10.3646,-1.2598 z m -77.7262,-0.28296 c -1.1999,-0.48153 -2.8254,-2.41647 -3.6124,-4.29986 -1.8867,-4.51565 -0.4156,-9.36119 3.4489,-11.35958 4.1681,-2.1554 6.5075,-1.71594 10.1255,1.90212 2.8932,2.89318 3.2275,3.70436 2.6448,6.41788 -0.9839,4.58255 -2.1802,6.41886 -4.8402,7.43021 -2.8767,1.09371 -4.8734,1.07038 -7.7666,-0.0908 z m 131.1451,13.33602 c 3.6852,-1.02361 11.279,-8.35722 11.279,-10.89253 0,-0.79609 -0.846,-2.29345 -1.88,-3.32747 -2.206,-2.20603 -3.9367,-1.78433 -8.3741,2.04044 -3.6022,3.10485 -7.5995,3.48609 -11.6242,1.10865 -6.2651,-3.70089 -6.3403,-13.13246 -0.1446,-18.14571 2.4622,-1.99224 8.0283,-1.42018 11.5642,1.18849 3.5467,2.61672 5.68,2.97226 7.4162,1.23604 3.368,-3.36802 -1.8805,-11.37436 -8.6516,-13.19764 -6.6959,-1.80301 -15.5395,0.78263 -20.3631,5.95366 -7.0649,7.57356 -6.3297,22.00374 1.5109,29.65996 5.183,5.06105 11.5748,6.5128 19.2673,4.37611 z m 40.2784,-1.25214 c 1.5688,0.0639 4.0314,0.42676 5.4725,0.80628 5.1273,1.3503 5.4616,0.15358 5.4616,-19.549 0,-14.98755 -0.2417,-18.12257 -1.4941,-19.37492 -1.8341,-1.83415 -1.7804,-1.83419 -5.6567,0.005 -2.5164,1.19412 -3.5835,1.27248 -5.2419,0.38496 -3.4921,-1.86892 -11.0959,-1.28272 -15.883,1.22447 -3.2217,1.68732 -5.0578,3.57652 -7.1948,7.40291 -5.1412,9.20556 -3.6243,18.07235 4.3543,25.45125 3.212,2.97061 9.8553,4.94504 14.0019,4.16145 1.8303,-0.34587 4.6113,-0.57655 6.1802,-0.51262 z m -12.9727,-10.62802 c -2.6438,-1.4363 -4.6171,-5.6772 -4.6171,-9.92315 0,-3.68811 5.3757,-8.60181 9.4106,-8.60181 4.2992,0 9.6054,5.22591 9.6054,9.46011 0,8.27326 -7.3446,12.89708 -14.3989,9.06485 z m 53.08853,9.58366 c 4.32931,-2.0157 5.06664,-2.78217 5.9958,-6.23278 2.08283,-7.73507 -2.94889,-14.22371 -12.17558,-15.70098 -2.2527,-0.36069 -5.24771,-1.68495 -6.65559,-2.94282 l -2.55976,-2.28705 2.24462,-1.89869 c 2.96799,-2.51057 3.77603,-2.4182 8.97588,1.02605 4.99668,3.30966 7.9142,3.10588 8.84885,-0.61805 1.87778,-7.48168 -11.33528,-12.54228 -21.13187,-8.09348 -4.76627,2.16444 -7.01928,5.17303 -7.01928,9.37336 0,6.6321 2.37122,8.90916 13.20769,12.68327 8.21798,2.86214 9.7475,5.17036 5.33981,8.05839 -3.12227,2.04579 -6.24625,1.19311 -10.84261,-2.95942 -3.8759,-3.50163 -5.66181,-4.01561 -7.51469,-2.1627 -2.1428,2.14281 -1.2739,5.96356 2.09995,9.23362 5.35194,5.18731 13.4029,6.14539 21.18678,2.52128 z m 32.07683,0.82279 c 0.82176,-0.82176 1.49411,-2.29501 1.49411,-3.27387 0,-2.14659 -3.44148,-4.73999 -6.29002,-4.73999 -2.87052,0 -3.21795,-1.4969 -3.21795,-13.86433 v -10.85641 h 2.31509 c 4.56229,0 7.19288,-1.66048 7.19288,-4.5403 0,-3.49933 -1.57184,-4.96768 -5.31782,-4.96768 -3.50355,0 -4.19015,-1.1724 -4.19015,-7.15482 0,-3.20746 -0.47872,-4.48223 -2.11316,-5.62703 -2.71942,-1.90476 -3.20417,-1.86757 -5.49322,0.42149 -1.44061,1.4406 -1.9016,3.16932 -1.9016,7.13098 v 5.22938 h -3.13763 c -3.82751,0 -5.41955,1.44255 -5.41955,4.9107 0,2.92325 2.22766,4.59728 6.11768,4.59728 h 2.4395 l 0.006,12.12267 c 0.006,13.52819 0.98099,18.50472 4.0464,20.65182 2.80301,1.9633 11.49268,1.93757 13.47014,-0.0399 z m 56.90861,-59.70979 c 10.21684,-4.35334 11.20743,-18.87271 1.65393,-24.24207 -6.31461,-3.54901 -12.48689,-2.23809 -17.49707,3.71618 -2.0162,2.39611 -2.49025,3.94058 -2.49025,8.11319 0,4.5712 0.38264,5.57724 3.38552,8.90106 4.34346,4.80771 9.21836,5.95294 14.94787,3.51164 z m 240.28355,-10.01776 c 0,-4.43374 -5.01089,-30.15067 -7.70548,-39.54625 -21.19593,-73.90608 -70.06817,-135.04752 -137.29115,-171.75755 -13.29304,-7.25924 -20.25411,-10.43167 -35.08424,-15.98926 -13.74841,-5.15222 -33.49096,-10.87498 -42.87241,-12.4274 -3.14245,-0.52 -7.42498,-1.35726 -9.51673,-1.86058 -4.6933,-1.1293 -13.78657,-1.24289 -13.78657,-0.17222 0,0.43355 2.24626,1.76918 4.99169,2.96806 24.41849,10.66316 37.31534,19.63172 50.59229,35.18223 5.70271,6.67926 7.10742,7.75701 13.65591,10.47734 24.97894,10.37661 55.75975,31.8323 77.2894,53.87441 21.21548,21.72046 39.02928,47.76393 49.73802,72.71615 3.25995,7.59596 4.08509,8.67344 11.36366,14.83898 13.17752,11.16244 26.54978,29.62141 31.6624,43.70653 4.32667,11.91982 6.96321,14.94498 6.96321,7.98956 z m -177.72399,-61.10295 c 4.67798,-3.38871 17.21423,-9.46577 25.40263,-12.31416 6.65557,-2.31517 22.09724,-5.58724 26.36758,-5.58724 4.32871,0 6.15329,-0.84898 6.15329,-2.86315 0,-4.1076 -24.63999,-29.96334 -37.0215,-38.84818 -5.49936,-3.94627 -6.26031,-3.12226 -7.61428,8.24535 -1.82346,15.30928 -8.48858,33.00954 -18.3108,48.62719 -1.46216,2.32487 -2.65846,4.57113 -2.65846,4.99168 0,1.69409 3.75361,0.59389 7.68154,-2.25149 z m 112.11896,-11.48859 c 0,-1.1794 -2.24626,-6.11658 -4.99169,-10.97151 -20.03418,-35.4279 -53.93019,-68.99724 -90.76819,-89.89343 -11.98117,-6.79627 -13.37635,-5.95791 -8.85907,5.32344 1.59329,3.97908 3.71309,12.01838 4.71065,17.86512 0.99755,5.84674 2.17117,10.96243 2.60803,11.3682 0.43688,0.40577 5.28683,4.08227 10.77768,8.17001 11.75222,8.74906 31.8871,28.88374 39.66965,39.66926 7.9197,10.97557 8.86521,11.81231 14.16874,12.53872 6.43364,0.88119 23.15321,5.20776 26.02861,6.73549 3.84148,2.04103 6.65559,1.70054 6.65559,-0.8053 z"
                 style="fill:#e49651;stroke-width:5.36099052" />
              <path
                 sodipodi:nodetypes="csssssssscssssscsssssscssssssssscsssssssscssssssssscssssscscssssscsssssssssssssssssccsssssssssssssscsssssssssssssccssssssssssssssssssssss"
                 inkscape:connector-curvature="0"
                 id="path5323"
                 d="m -1021.8792,606.58 c -9.2791,-2.62261 -18.0377,-9.79364 -21.1971,-17.35496 -2.3638,-5.65734 -1.7085,-6.7306 6.2059,-10.16416 3.9268,-1.70358 9.275,-4.70815 11.885,-6.67682 2.61,-1.96867 6.0137,-4.50475 7.5638,-5.63573 9.2524,-6.75079 18.99184,-17.43245 17.74077,-19.45686 -1.68917,-2.73311 -10.89827,-3.91117 -20.55907,-2.62999 -11.3871,1.5101 -22.1688,11.79805 -24.6145,23.48731 -0.6986,3.33874 -1.0741,7.40597 -0.8345,9.0383 0.2396,1.63234 -0.02,3.2493 -0.5763,3.59326 -0.5565,0.34396 -4.1275,-0.43952 -7.9355,-1.74105 -15.5,-5.29777 -37.2407,-3.40816 -45.6556,3.96816 -1.4912,1.30713 -2.2274,1.19699 -7.6064,-1.13802 -20.0632,-8.70934 -32.2852,-18.24628 -45.2088,-35.27676 -21.4711,-28.29432 -31.0289,-67.04426 -25.9353,-105.14917 l 1.2234,-9.15278 5.598,-4.92754 c 3.0789,-2.71016 5.598,-5.54411 5.598,-6.29769 0,-2.25017 1.8794,-1.55242 2.8755,1.06758 1.3858,3.64512 8.7683,11.82325 10.6734,11.82378 2.2193,6.2e-4 2.1113,0.85503 -0.8543,6.7594 -2.5012,4.97983 -2.514,5.11434 -1.901,19.98452 0.3394,8.23402 0.9978,15.97214 1.463,17.19581 0.5076,1.33499 3.0743,3.37675 6.4173,5.10475 10.9046,5.6366 18.4186,10.74454 24.9219,16.94156 5.2962,5.04678 12.5013,14.0778 12.5013,15.66948 0,0.50514 0.9761,2.12788 2.1691,3.60608 4.8057,5.95439 12.0928,25.50302 12.0928,32.44058 0,1.44457 0.6661,3.5774 1.4801,4.73962 1.3958,1.99279 2.1598,2.11316 13.4117,2.11316 14.4056,0 27.8226,-3.05224 36.2441,-8.24522 8.0288,-4.95086 17.997,-17.23322 24.4617,-30.14062 l 2.7964,-5.58331 -3.5193,-2.97387 c -5.9965,-5.0672 -6.6206,-10.85229 -1.7012,-15.77166 1.4713,-1.47132 3.1739,-1.93956 7.0525,-1.93956 2.9315,0 5.533,-0.50708 6.0974,-1.1885 1.7858,-2.15598 5.0218,-21.89551 5.5724,-33.99101 0.5407,-11.87851 0.5394,-11.88818 -2.4161,-17.77413 -1.6264,-3.23903 -2.9571,-6.17347 -2.9571,-6.52096 0,-0.34749 1.0934,-0.35738 2.4297,-0.022 l 2.4296,0.6098 -0.2903,-20.42796 c -0.205,-14.42353 -0.63,-20.76701 -1.4459,-21.58143 -0.6355,-0.63441 -2.8617,-1.08662 -4.9472,-1.0049 -3.7583,0.14726 -3.8169,0.0957 -6.6527,-5.84604 -10.0506,-21.05922 -27.1334,-38.46108 -43.5794,-44.39334 -3.2683,-1.17895 -5.9425,-2.55817 -5.9425,-3.06493 0,-0.50678 1.8635,-2.99399 4.141,-5.52714 2.5143,-2.7965 4.6252,-6.33525 5.3737,-9.00857 1.1259,-4.0215 1.0465,-4.85206 -0.9169,-9.58922 l -2.1497,-5.18639 2.0054,-4.66155 c 3.1077,-7.22402 2.762,-15.32674 -0.9726,-22.80041 -2.4395,-4.88194 -3.6858,-6.28078 -6.8933,-7.73736 -5.3593,-2.43374 -7.1771,-2.27736 -12.1997,1.04945 -5.6297,3.72897 -8.5923,10.19592 -8.5923,18.75588 0,3.29048 -0.2674,6.13424 -0.5943,6.31947 -0.3268,0.18523 -4.124,0.63469 -8.4383,0.9988 l -7.8441,0.66202 v -6.20986 c 0,-12.00774 -6.3609,-22.44479 -13.679,-22.44479 -4.5361,0 -9.2419,3.54717 -11.9925,9.03992 -1.9767,3.94738 -2.377,6.10749 -2.377,12.82843 0,6.78387 0.4227,9.02331 2.6322,13.94454 l 2.6323,5.86278 -1.9627,4.97939 c -1.9661,4.98795 -1.9362,7.91814 0.1358,13.32587 1.1481,2.99641 8.4213,8.67978 13.9145,10.87287 2.2225,0.8873 4.0409,1.95254 4.0409,2.3672 0,0.41465 -1.5165,1.97266 -3.3699,3.46225 -10.0818,8.1026 -18.8051,18.27295 -23.8822,27.84359 -2.0069,3.78313 -4.429,8.33144 -5.3825,10.10737 -1.3207,2.45982 -2.6796,3.47317 -5.7048,4.25421 -2.1841,0.56388 -4.6831,1.23087 -5.5532,1.48217 -1.3851,0.40001 -4.4991,4.04429 -8.8561,10.36407 -1.2657,1.83585 -1.3349,1.83992 -2.002,0.11791 -0.38,-0.98102 -0.1411,-3.33424 0.5311,-5.22938 1.3764,-3.88093 12.4301,-21.00224 14.8627,-23.02106 3.3341,-2.76705 6.2614,-8.92552 8.0161,-16.86411 2.4721,-11.18465 3.484,-43.87978 1.8295,-59.11569 -2.7765,-25.56803 -2.2151,-35.61552 2.6564,-47.53989 6.6632,-16.31004 17.5148,-27.69597 31.406,-32.95224 8.9794,-3.39774 17.2321,-4.42835 24.31,-3.03586 21.8179,3.10992 36.2904,27.05623 41.4875,36.91953 3.7452,6.99803 4.7297,32.37246 1.6422,42.32995 -2.3867,7.69737 -2.7701,15.3897 -1.2294,24.65981 2.4965,15.02039 9.4207,26.01698 23.843,37.86601 4.7064,3.86673 10.8425,9.53456 13.6357,12.59517 4.57724,5.0155 14.4127,18.61158 14.4127,19.92352 0,0.28932 -1.71303,1.21145 -3.80673,2.04919 -7.5794,3.03269 -10.54287,9.92172 -7.1175,16.54564 1.65987,3.21005 3.24413,4.18005 12.35042,7.56189 4.95927,1.84174 6.65559,2.92114 6.65559,4.23505 0,4.75792 -6.12269,4.21096 -11.96703,-1.06906 -3.34198,-3.01927 -4.16734,-3.35143 -6.39391,-2.57323 -2.07914,0.72668 -2.61234,1.56867 -2.85564,4.5092 -0.2547,3.07919 0.1838,4.07113 2.95534,6.68513 5.39253,5.08578 13.54561,6.61051 21.05076,3.93673 2.05718,-0.73289 4.04431,-1.14465 4.41585,-0.91502 0.87464,0.54054 1.53869,5.55997 2.82409,21.34696 1.03823,12.75122 0.86487,15.87455 -1.96682,35.43486 -0.51242,3.53954 -0.93166,6.85545 -0.93166,7.36868 0,0.51323 1.95349,0.93315 4.34109,0.93315 2.38761,0 5.20894,0.46445 6.26962,1.03211 2.26974,1.21473 5.79445,8.64154 5.03744,10.61426 -0.99745,2.59934 1.4178,13.38605 4.36604,19.49904 2.73187,5.66436 6.50515,9.99727 16.1906,18.59195 2.73569,2.42759 2.96805,3.0637 2.53205,6.93187 -0.61666,5.47099 -2.59524,7.57039 -8.84777,9.38805 -6.27345,1.82374 -16.33377,6.65474 -23.23349,11.15681 -5.25143,3.42656 -19.96675,17.24119 -19.96675,18.74466 0,0.44207 -1.8184,2.61065 -4.04089,4.81907 -8.03916,7.98825 -21.4731,11.88421 -31.3516,9.09221 z m -132.5143,-192.00844 c -0.8377,-2.18301 0.7336,-7.45072 2.3868,-8.00179 1.0367,-0.34559 1.2011,0.42053 0.7739,3.60613 -0.6322,4.71295 -2.2014,6.8954 -3.1607,4.39566 z m 170.32342,-6.97931 c -2.46863,-0.62707 -6.21982,-3.12171 -6.21982,-4.13634 0,-1.39936 3.79383,-2.90761 5.75113,-2.28639 2.00368,0.63594 5.03036,5.52584 4.03586,6.52033 -0.63399,0.63399 -0.69344,0.63236 -3.56717,-0.0976 z M -1122.7525,304.68186 c -3.3735,-4.00922 -4.1544,-9.67095 -1.874,-13.5871 0.988,-1.69666 2.9664,-3.65025 4.3966,-4.34129 2.2641,-1.09404 2.9953,-1.02639 5.6568,0.52335 2.3849,1.38873 3.3155,2.81382 4.2349,6.48583 1.5038,6.00573 0.2397,10.3499 -3.5873,12.32895 -4.025,2.0814 -6.1788,1.73743 -8.827,-1.40974 z m 51.6448,-0.5837 c -1.3073,-0.74352 -3.9733,-1.61896 -5.9245,-1.94542 -4.0615,-0.67955 -5.2192,-1.7556 -5.498,-5.11025 -0.4154,-4.99908 0.1118,-6.62496 3.2153,-9.91568 7.0871,-7.51451 16.7955,-1.92293 16.7504,9.64744 -0.028,7.26552 -3.4652,10.21187 -8.5432,7.32391 z"
                 style="fill:#cf6d27;fill-opacity:1;stroke-width:5.36099052" />
            </g>
          </g>
        </g>
      </g>
    </g>
  </g>
</svg>
